%YAML 1.1
%TAG !u! tag:unity3d.com,2011:
--- !u!1 &132138
GameObject:
  m_ObjectHideFlags: 0
  m_PrefabParentObject: {fileID: 0}
  m_PrefabInternal: {fileID: 100100000}
  serializedVersion: 5
  m_Component:
  - component: {fileID: 485262}
  - component: {fileID: 11426538}
  m_Layer: 0
  m_Name: Clear_Mobile
  m_TagString: Untagged
  m_Icon: {fileID: 0}
  m_NavMeshLayer: 0
  m_StaticEditorFlags: 0
  m_IsActive: 1
--- !u!4 &485262
Transform:
  m_ObjectHideFlags: 1
  m_PrefabParentObject: {fileID: 0}
  m_PrefabInternal: {fileID: 100100000}
  m_GameObject: {fileID: 132138}
  m_LocalRotation: {x: 0, y: 0, z: 0, w: 1}
  m_LocalPosition: {x: 0, y: 0, z: 0}
  m_LocalScale: {x: 1, y: 1, z: 1}
  m_Children: []
  m_Father: {fileID: 0}
  m_RootOrder: 0
  m_LocalEulerAnglesHint: {x: 0, y: 0, z: 0}
--- !u!114 &11426538
MonoBehaviour:
  m_ObjectHideFlags: 1
  m_PrefabParentObject: {fileID: 0}
  m_PrefabInternal: {fileID: 100100000}
  m_GameObject: {fileID: 132138}
  m_Enabled: 1
  m_EditorHideFlags: 0
  m_Script: {fileID: 11500000, guid: 9b381f712bb62584f9fd542f29d54c29, type: 3}
  m_Name: 
  m_EditorClassIdentifier: 
  Name: Clear
  Spring: 1
  possibiltyInSpring: 25
  Summer: 1
  possibiltyInSummer: 25
  Autumn: 1
  possibiltyInAutumn: 25
  winter: 1
  possibiltyInWinter: 25
  effectEmmisionRates: []
  cloudConfig:
    BaseColor: {r: 0.9117647, g: 0.9117647, b: 0.9117647, a: 1}
    ShadingColor: {r: 0.5661765, g: 0.5661765, b: 0.5661765, a: 1}
    Coverage: -1
    Sharpness: 0.005
    windDir: {x: 0, y: 0}
  linearStartDistance: 0
  linearEndDistance: 250
  expDensity: 0.01
  effectParticleSystems: []
  sunLightMod: 0
  WindStrenght: 0.116
  wetnessLevel: 0
  snowLevel: 0
  isLightningStorm: 0
  Sfx: {fileID: 0}
--- !u!1001 &100100000
Prefab:
  m_ObjectHideFlags: 1
  serializedVersion: 2
  m_Modification:
    m_TransformParent: {fileID: 0}
    m_Modifications:
    - target: {fileID: 0}
      propertyPath: cloudConfig.Speed1
      value: 1
      objectReference: {fileID: 0}
    - target: {fileID: 0}
      propertyPath: cloudConfig.Speed2
      value: 4
      objectReference: {fileID: 0}
    - target: {fileID: 0}
      propertyPath: fogDistance
      value: 1000
      objectReference: {fileID: 0}
    - target: {fileID: 0}
      propertyPath: possibiltyInSpring
      value: 25
      objectReference: {fileID: 0}
    - target: {fileID: 0}
      propertyPath: possibiltyInSummer
      value: 25
      objectReference: {fileID: 0}
    - target: {fileID: 0}
      propertyPath: possibiltyInAutumn
      value: 25
      objectReference: {fileID: 0}
    - target: {fileID: 0}
      propertyPath: possibiltyInWinter
      value: 25
      objectReference: {fileID: 0}
    - target: {fileID: 0}
      propertyPath: cloudConfig.FirstColor.a
      value: 1
      objectReference: {fileID: 0}
    - target: {fileID: 0}
      propertyPath: cloudConfig.FirstColor.r
      value: .933823526
      objectReference: {fileID: 0}
    - target: {fileID: 0}
      propertyPath: cloudConfig.FirstColor.g
      value: .933823526
      objectReference: {fileID: 0}
    - target: {fileID: 0}
      propertyPath: cloudConfig.FirstColor.b
      value: .933823526
      objectReference: {fileID: 0}
    - target: {fileID: 0}
      propertyPath: cloudConfig.SecondColor.r
      value: 1
      objectReference: {fileID: 0}
    - target: {fileID: 0}
      propertyPath: cloudConfig.SecondColor.g
      value: 1
      objectReference: {fileID: 0}
    - target: {fileID: 0}
      propertyPath: cloudConfig.SecondColor.b
      value: 1
      objectReference: {fileID: 0}
    - target: {fileID: 0}
      propertyPath: cloudConfig.SecondColor.a
      value: 1
      objectReference: {fileID: 0}
    - target: {fileID: 0}
      propertyPath: WindStrenght
      value: .115999997
      objectReference: {fileID: 0}
    m_RemovedComponents: []
  m_ParentPrefab: {fileID: 0}
  m_RootGameObject: {fileID: 132138}
  m_IsPrefabParent: 1
