%YAML 1.1
%TAG !u! tag:unity3d.com,2011:
--- !u!114 &11400000
MonoBehaviour:
  m_ObjectHideFlags: 0
  m_PrefabParentObject: {fileID: 0}
  m_PrefabInternal: {fileID: 0}
  m_GameObject: {fileID: 0}
  m_Enabled: 1
  m_EditorHideFlags: 0
  m_Script: {fileID: 11500000, guid: 09549af41255a3d46b8b500a63f93e23, type: 3}
  m_Name: Lighting_Profile_Arch_1
  m_EditorClassIdentifier: 
  objectName: LightingProfile
  postProcessingProfile: {fileID: 11400000, guid: 537cc77e696a427459cbc59f9f7e536a,
    type: 2}
  renderPath: 2
  lightingMode: 2
  bakedResolution: 3
  lightSettings: 3
  colorSpace: 0
  skyBox: {fileID: 2100000, guid: 526e813dc08705443a80a995cb4b1a9f, type: 2}
  ambientLight: 1
  ambientColor: {r: 0.17517298, g: 0.1980372, b: 0.2205882, a: 1}
  sunColor: {r: 1, g: 1, b: 1, a: 1}
  sunIntensity: 1.43
  sunFlare: {fileID: 12100000, guid: 70ff7d98b27dd54458e51a95f7984da3, type: 2}
  indirectIntensity: 1.43
  fogMode: 0
  fogDistance: 0
  fogHeight: 13.44
  fogHeightDensity: 0.148
  fogColor: {r: 1, g: 0.85801214, b: 0.7941176, a: 1}
  fogDensity: 3.4
  brightness: 0
  bIntensity: 2.29
  bThreshould: 0.37
  bColor: {r: 1, g: 0.76551723, b: 0, a: 1}
  bMode: 0
  aoType: 0
  aoRadius: 0.3
  aoMode: 0
  aoIntensity: 0.31
  ambientOnly: 1
  aoColor: {r: 0, g: 0, b: 0, a: 1}
  vLight: 1
  vLightLevel: 2
  lightsShadow: 2
  lightProbesMode: 0
  automaticLightmap: 0
  dofType: 0
  dofRange: 22.9
  dofBlur: 19.8
  falloff: 100
  dofQuality: 2
  visualize: 0
  exposureIntensity: 1.94
  contrastValue: 0
  temp: 0
  colorMode: 1
  saturation: 0
  gamma: -0.5
  colorGrading: {r: 0, g: 0, b: 0, a: 1}
  mbMode: 0
  vtMode: 0
  caMode: 0
  ssrMode: 0
  ssrBlur: 0
  eyeKeyValue: 0.17
  aaMode: 0
