%YAML 1.1
%TAG !u! tag:unity3d.com,2011:
--- !u!1045 &1
EditorBuildSettings:
  m_ObjectHideFlags: 0
  serializedVersion: 2
  m_Scenes:
  - enabled: 0
    path: Assets/Main.unity
    guid: 12ac0a1b132762b47b64d656f79e1ce2
  - enabled: 1
    path: Assets/iBeacon/Example/Scenes/Examples.unity
    guid: 5531c81088f374535951e8a300516581
